<svg xmlns="http://www.w3.org/2000/svg" width="24" height="24" viewBox="0 0 24 24">
  <metadata><?xpacket begin="﻿" id="W5M0MpCehiHzreSzNTczkc9d"?>
<x:xmpmeta xmlns:x="adobe:ns:meta/" x:xmptk="Adobe XMP Core 5.6-c142 79.160924, 2017/07/13-01:06:39        ">
   <rdf:RDF xmlns:rdf="http://www.w3.org/1999/02/22-rdf-syntax-ns#">
      <rdf:Description rdf:about=""/>
   </rdf:RDF>
</x:xmpmeta>
                                                                                                    
                                                                                                    
                                                                                                    
                                                                                                    
                                                                                                    
                                                                                                    
                                                                                                    
                                                                                                    
                                                                                                    
                                                                                                    
                                                                                                    
                                                                                                    
                                                                                                    
                                                                                                    
                                                                                                    
                                                                                                    
                                                                                                    
                                                                                                    
                                                                                                    
                                                                                                    
                           
<?xpacket end="w"?></metadata>
<defs>
    <style>
      .cls-1 {
        fill: #fff;
        fill-rule: evenodd;
      }
    </style>
  </defs>
  <path id="Forma_1" data-name="Forma 1" class="cls-1" d="M451.035,1764h-22.07a0.963,0.963,0,0,0-.965.96V1769h24v-4.04A0.963,0.963,0,0,0,451.035,1764ZM429,1786a2.164,2.164,0,0,0,1.964,2h18.072a2.164,2.164,0,0,0,1.964-2v-15H429v15Zm21-2.8v2.64a1.363,1.363,0,0,1-1.364,1.36H446A4,4,0,0,1,450,1783.2Zm-13.6-8a0.4,0.4,0,0,1,.8,0v0.6a0.6,0.6,0,0,0,.6.6h4.4a0.6,0.6,0,0,0,.6-0.6v-0.6a0.4,0.4,0,1,1,.8,0v0.6a1.4,1.4,0,0,1-1.4,1.4h-4.4a1.4,1.4,0,0,1-1.4-1.4v-0.6Zm-6.4,8a4,4,0,0,1,4,4h-2.636a1.363,1.363,0,0,1-1.364-1.36v-2.64Z" transform="translate(-428 -1764)"/>
</svg>
