<svg xmlns="http://www.w3.org/2000/svg" width="24" height="23" viewBox="0 0 24 23">
  <metadata><?xpacket begin="﻿" id="W5M0MpCehiHzreSzNTczkc9d"?>
<x:xmpmeta xmlns:x="adobe:ns:meta/" x:xmptk="Adobe XMP Core 5.6-c142 79.160924, 2017/07/13-01:06:39        ">
   <rdf:RDF xmlns:rdf="http://www.w3.org/1999/02/22-rdf-syntax-ns#">
      <rdf:Description rdf:about=""/>
   </rdf:RDF>
</x:xmpmeta>
                                                                                                    
                                                                                                    
                                                                                                    
                                                                                                    
                                                                                                    
                                                                                                    
                                                                                                    
                                                                                                    
                                                                                                    
                                                                                                    
                                                                                                    
                                                                                                    
                                                                                                    
                                                                                                    
                                                                                                    
                                                                                                    
                                                                                                    
                                                                                                    
                                                                                                    
                                                                                                    
                           
<?xpacket end="w"?></metadata>
<defs>
    <style>
      .cls-1 {
        fill: #fff;
        fill-rule: evenodd;
      }
    </style>
  </defs>
  <path id="Forma_1" data-name="Forma 1" class="cls-1" d="M1355.49,1783.27a38.354,38.354,0,0,1-4.11,5.02,17.59,17.59,0,0,1-1.32,1.23c4.02-.07,7.79-2.22,5.71-5.82C1355.68,1783.55,1355.59,1783.41,1355.49,1783.27Zm-8.94,1.85a1.662,1.662,0,0,1,1.67-1.65,2.2,2.2,0,0,1,.36.04c0.65-1.19,1.4-2.42,2.2-3.59a26.261,26.261,0,0,1,1.74-2.3,10.884,10.884,0,0,1,.27-3.39c1.46-6.92-10.55-11.77-14.07-.58-2.17,6.91.67,12.1,7.04,15.06,0.22,0.1.45,0.19,0.68,0.27a9.15,9.15,0,0,1,.74-2.57A1.635,1.635,0,0,1,1346.55,1785.12Zm-5.69-8.02a1.68,1.68,0,1,1,1.68,1.65A1.656,1.656,0,0,1,1340.86,1777.1Zm3.1,6.37a1.645,1.645,0,1,1,1.68-1.64A1.654,1.654,0,0,1,1343.96,1783.47Zm1.39-12.04a2.135,2.135,0,1,1,2.13,2.09A2.113,2.113,0,0,1,1345.35,1771.43Zm10.38,6.14h0a3.3,3.3,0,0,1-1.02-.98,14.3,14.3,0,0,0-3.3,3.75c-2.86,4.17-4.97,8.95-3.98,9.59a0.453,0.453,0,0,0,.27.07c1.28,0,4.66-3.49,7.3-7.35a13.454,13.454,0,0,0,2.31-4.51,4.5,4.5,0,0,1-.89-0.23A3.165,3.165,0,0,1,1355.73,1777.57Zm6.26-6.74a0.54,0.54,0,0,0-.55-0.41,10.431,10.431,0,0,0-4.91,1.18,3.525,3.525,0,0,0-1.89,2.47,2.938,2.938,0,0,0,.18,1.53,3.229,3.229,0,0,0,1.89,1.78,3.764,3.764,0,0,0,1.29.25h0.18a2.736,2.736,0,0,0,1.29-.42c1.19-.75,1.09-1.97,1.01-3.05-0.11-1.35-.12-2.2,1.19-2.73A0.533,0.533,0,0,0,1361.99,1770.83Z" transform="translate(-1338 -1767)"/>
</svg>
