<svg xmlns="http://www.w3.org/2000/svg" width="47.031" height="70.594" viewBox="0 0 47.031 70.594">
  <metadata><?xpacket begin="﻿" id="W5M0MpCehiHzreSzNTczkc9d"?>
<x:xmpmeta xmlns:x="adobe:ns:meta/" x:xmptk="Adobe XMP Core 5.6-c142 79.160924, 2017/07/13-01:06:39        ">
   <rdf:RDF xmlns:rdf="http://www.w3.org/1999/02/22-rdf-syntax-ns#">
      <rdf:Description rdf:about=""/>
   </rdf:RDF>
</x:xmpmeta>
                                                                                                    
                                                                                                    
                                                                                                    
                                                                                                    
                                                                                                    
                                                                                                    
                                                                                                    
                                                                                                    
                                                                                                    
                                                                                                    
                                                                                                    
                                                                                                    
                                                                                                    
                                                                                                    
                                                                                                    
                                                                                                    
                                                                                                    
                                                                                                    
                                                                                                    
                                                                                                    
                           
<?xpacket end="w"?></metadata>
<defs>
    <style>
      .cls-1 {
        fill: #764bc2;
        fill-rule: evenodd;
      }
    </style>
  </defs>
  <path class="cls-1" d="M57.574,58.541c0,0.574.893,1.04,1.994,1.04s1.994-.466,1.994-1.04S57.574,57.966,57.574,58.541Zm17.842,2.051a17.635,17.635,0,1,0-31.7,0,33.087,33.087,0,0,0-7.664,21.7c0,9.064,3.275,17.488,8.987,23.114a1.475,1.475,0,0,0,1.03.423H73.062a1.474,1.474,0,0,0,1.03-.423c5.712-5.626,8.987-14.049,8.987-23.114A33.088,33.088,0,0,0,75.416,60.593ZM46.561,61.835a1.476,1.476,0,0,0,.215-1.737,14.7,14.7,0,1,1,25.579,0,1.476,1.476,0,0,0,.215,1.737,25.614,25.614,0,0,1,4.005,5.684,45.357,45.357,0,0,0-10.86-4.666,11.756,11.756,0,1,0-12.3,0,45.372,45.372,0,0,0-10.861,4.666A25.633,25.633,0,0,1,46.561,61.835Zm13-.139a8.831,8.831,0,0,1-8.817-8.826c0-.046.013-0.089,0.014-0.134a10.48,10.48,0,0,0,3.033-.8,1.465,1.465,0,0,0,2.831-.534,1.447,1.447,0,0,0-.359-0.933,13.6,13.6,0,0,0,3.3-3.629,13.587,13.587,0,0,0,3.3,3.629,1.446,1.446,0,0,0-.359.933,1.465,1.465,0,0,0,2.831.534,10.482,10.482,0,0,0,3.033.8c0,0.046.014,0.089,0.014,0.134A8.831,8.831,0,0,1,59.566,61.7ZM64.7,69.538c-1.917-.939-3.662-2.228-3.662-3.429a1.47,1.47,0,1,0-2.939,0c0,1.191-1.733,2.475-3.645,3.416,0.835-2.182,2.411-4.887,5.115-4.887C62.3,64.638,63.877,67.354,64.7,69.538ZM51.357,49.716a8.825,8.825,0,0,1,6.3-5.449A9.889,9.889,0,0,1,51.357,49.716ZM61.48,44.267a8.825,8.825,0,0,1,6.3,5.449A9.889,9.889,0,0,1,61.48,44.267ZM40.432,72.691a37,37,0,0,1,12.387-6.579,18.676,18.676,0,0,0-2.05,5.639A1.47,1.47,0,0,0,52.641,73.4c0.618-.186,4.69-1.488,6.926-3.93,2.236,2.442,6.308,3.744,6.926,3.93a1.472,1.472,0,0,0,1.871-1.651,18.678,18.678,0,0,0-2.05-5.639A37,37,0,0,1,78.7,72.691a32.89,32.89,0,0,1,1.439,9.6H38.993A32.886,32.886,0,0,1,40.432,72.691Zm32.018,30.192H46.682A28.923,28.923,0,0,1,39.12,85.231H80.012A28.923,28.923,0,0,1,72.451,102.883Z" transform="translate(-36.063 -35.219)"/>
</svg>
