<svg xmlns="http://www.w3.org/2000/svg" width="53.53" height="78.69" viewBox="0 0 53.53 78.69">
  <metadata><?xpacket begin="﻿" id="W5M0MpCehiHzreSzNTczkc9d"?>
<x:xmpmeta xmlns:x="adobe:ns:meta/" x:xmptk="Adobe XMP Core 5.6-c142 79.160924, 2017/07/13-01:06:39        ">
   <rdf:RDF xmlns:rdf="http://www.w3.org/1999/02/22-rdf-syntax-ns#">
      <rdf:Description rdf:about=""/>
   </rdf:RDF>
</x:xmpmeta>
                                                                                                    
                                                                                                    
                                                                                                    
                                                                                                    
                                                                                                    
                                                                                                    
                                                                                                    
                                                                                                    
                                                                                                    
                                                                                                    
                                                                                                    
                                                                                                    
                                                                                                    
                                                                                                    
                                                                                                    
                                                                                                    
                                                                                                    
                                                                                                    
                                                                                                    
                                                                                                    
                           
<?xpacket end="w"?></metadata>
<defs>
    <style>
      .cls-1 {
        fill: #764bc2;
        fill-rule: evenodd;
      }
    </style>
  </defs>
  <path class="cls-1" d="M1286.09,1417.14l-9.58-16.93v-16.89a6.11,6.11,0,0,0-6.08-6.14h-21.9a6.118,6.118,0,0,0-6.09,6.14v16.89l-9.57,16.93a0.318,0.318,0,0,0-.03.09,0.929,0.929,0,0,0-.05.1,1.42,1.42,0,0,0-.08.41v31.98a6.116,6.116,0,0,0,6.08,6.14h41.38a6.116,6.116,0,0,0,6.08-6.14v-31.97A1.321,1.321,0,0,0,1286.09,1417.14Zm-41.21-33.82a3.67,3.67,0,0,1,3.65-3.68h21.9a3.67,3.67,0,0,1,3.65,3.68v15.99h-29.2v-15.99Zm-0.51,18.45h28.83l-8.34,14.75h-28.84Zm19.98,51.63h-25.56a3.67,3.67,0,0,1-3.65-3.68v-30.74h29.21v34.42Zm19.47-3.68a3.67,3.67,0,0,1-3.65,3.68h-13.39v-35.32l8.52-15.07,8.52,15.07v31.64Zm-18.26-65.17H1253.4a4.92,4.92,0,0,0,0,9.84h12.16A4.92,4.92,0,0,0,1265.56,1384.55Zm0,7.38H1253.4a2.46,2.46,0,0,1,0-4.92h12.16A2.46,2.46,0,0,1,1265.56,1391.93Zm-15.81,47.95a7.375,7.375,0,1,0-7.31-7.38A7.352,7.352,0,0,0,1249.75,1439.88Zm0-12.29a4.915,4.915,0,1,1-4.87,4.91A4.889,4.889,0,0,1,1249.75,1427.59Zm-7.31,14.75h14.61v2.46h-14.61v-2.46Z" transform="translate(-1232.72 -1377.19)"/>
</svg>
