<svg xmlns="http://www.w3.org/2000/svg" width="59.22" height="64.91" viewBox="0 0 59.22 64.91">
  <metadata><?xpacket begin="﻿" id="W5M0MpCehiHzreSzNTczkc9d"?>
<x:xmpmeta xmlns:x="adobe:ns:meta/" x:xmptk="Adobe XMP Core 5.6-c142 79.160924, 2017/07/13-01:06:39        ">
   <rdf:RDF xmlns:rdf="http://www.w3.org/1999/02/22-rdf-syntax-ns#">
      <rdf:Description rdf:about=""/>
   </rdf:RDF>
</x:xmpmeta>
                                                                                                    
                                                                                                    
                                                                                                    
                                                                                                    
                                                                                                    
                                                                                                    
                                                                                                    
                                                                                                    
                                                                                                    
                                                                                                    
                                                                                                    
                                                                                                    
                                                                                                    
                                                                                                    
                                                                                                    
                                                                                                    
                                                                                                    
                                                                                                    
                                                                                                    
                                                                                                    
                           
<?xpacket end="w"?></metadata>
<defs>
    <style>
      .cls-1 {
        fill: #764bc2;
        fill-rule: evenodd;
      }
    </style>
  </defs>
  <path class="cls-1" d="M1443.12,1417.06h22.52a1.453,1.453,0,0,0,1.46-1.45v-11.27a1.455,1.455,0,0,0-1.46-1.46h-9.81v-21.09a1.451,1.451,0,0,0-1.45-1.45h-11.26a1.451,1.451,0,0,0-1.45,1.45v33.82A1.451,1.451,0,0,0,1443.12,1417.06Zm1.45-33.81h8.36v21.09a1.451,1.451,0,0,0,1.45,1.45h9.81v8.36h-19.62v-30.9Zm43.6,25.27h-11.26a1.453,1.453,0,0,0-1.46,1.45v9.82h-9.81a1.451,1.451,0,0,0-1.45,1.45v9.82h-32.33a1.453,1.453,0,0,0-1.46,1.45v11.27a1.455,1.455,0,0,0,1.46,1.46h56.31a1.453,1.453,0,0,0,1.45-1.46v-33.81A1.451,1.451,0,0,0,1488.17,1408.52Zm-54.86,25.45h42.14v8.36h-42.14v-8.36Zm53.41,8.36h-8.36v-9.82a1.451,1.451,0,0,0-1.45-1.45h-9.81v-8.36h9.81a1.46,1.46,0,0,0,1.45-1.46v-9.82h8.36v30.91Z" transform="translate(-1430.41 -1380.34)"/>
</svg>
