<svg xmlns="http://www.w3.org/2000/svg" width="26" height="26" viewBox="0 0 26 26">
  <metadata><?xpacket begin="﻿" id="W5M0MpCehiHzreSzNTczkc9d"?>
<x:xmpmeta xmlns:x="adobe:ns:meta/" x:xmptk="Adobe XMP Core 5.6-c142 79.160924, 2017/07/13-01:06:39        ">
   <rdf:RDF xmlns:rdf="http://www.w3.org/1999/02/22-rdf-syntax-ns#">
      <rdf:Description rdf:about=""/>
   </rdf:RDF>
</x:xmpmeta>
                                                                                                    
                                                                                                    
                                                                                                    
                                                                                                    
                                                                                                    
                                                                                                    
                                                                                                    
                                                                                                    
                                                                                                    
                                                                                                    
                                                                                                    
                                                                                                    
                                                                                                    
                                                                                                    
                                                                                                    
                                                                                                    
                                                                                                    
                                                                                                    
                                                                                                    
                                                                                                    
                           
<?xpacket end="w"?></metadata>
<defs>
    <style>
      .cls-1 {
        fill: #fff;
        fill-rule: evenodd;
      }
    </style>
  </defs>
  <path id="Forma_1" data-name="Forma 1" class="cls-1" d="M842.477,1780.98l-2.73-6.37a2.363,2.363,0,0,0,2.071-2.34v-1.18a2.365,2.365,0,0,0-2.364-2.36h-6.363a9.811,9.811,0,0,1-2.12-1.39,1.687,1.687,0,0,0,.8.21,3.958,3.958,0,1,0-3.546,0,1.646,1.646,0,0,0,.664-0.14,10.92,10.92,0,0,1-1.991,1.32h-6.355a2.365,2.365,0,0,0-2.363,2.36v1.18a2.362,2.362,0,0,0,2.071,2.34l-2.73,6.37a6.411,6.411,0,0,0-.523,2.55,6.478,6.478,0,0,0,6.474,6.47h13.052a6.478,6.478,0,0,0,6.474-6.47A6.411,6.411,0,0,0,842.477,1780.98Zm-12.515-12.95a7.371,7.371,0,0,0,.825.7h-1.652A7.766,7.766,0,0,0,829.962,1768.03Zm8.9,3.06H821.136a0.6,0.6,0,0,0-.591.59v1.77a1.182,1.182,0,0,1-1.181-1.18v-1.18a1.182,1.182,0,0,1,1.181-1.18h18.909a1.183,1.183,0,0,1,1.182,1.18v1.18a1.183,1.183,0,0,1-1.182,1.18v-1.77A0.594,0.594,0,0,0,838.864,1771.09Z" transform="translate(-817 -1764)"/>
</svg>
